# system info spi_slave on 2020.03.26.03:23:56
system_info:
name,value
DEVICE,5CSEMA5F31C6
DEVICE_FAMILY,Cyclone V
GENERATION_ID,1585211034
#
#
# Files generated for spi_slave on 2020.03.26.03:23:56
files:
filepath,kind,attributes,module,is_top
simulation/spi_slave.v,VERILOG,,spi_slave,true
simulation/submodules/spiphyslave.v,VERILOG,,SPIPhy,false
#
# Map from instance-path to kind of module
instances:
instancePath,module
spi_slave.spi_slave,SPIPhy
